id;login;password_hash;first_name;last_name;email;phone_number;poste;on_ticket_mail;on_ticket_sms;on_ticket_phone_call;image_url;activated;lang_key;created_by;last_modified_by;created_date;company_id
5;bkane@kaylene-group.com;$2a$10$dDa4teh8UCLxOOg8mMTtDOiUvR3g6YgXZQOUxU7XZ0qW/uGR5mRRq;Bocar;Kane;bkane@kaylene-group.com;782913636;PDG Kaylene;true;false;false;;true;en;admin;admin;2018-01-14T00:08:06;2
6;ldiatta@kaylene-group.com;$2a$10$dDa4teh8UCLxOOg8mMTtDOiUvR3g6YgXZQOUxU7XZ0qW/uGR5mRRq;Louis;Diatta;ldiatta@kaylene-group.com;771643627;Back end developer;true;false;false;;true;en;admin;admin;2018-01-14T00:08:06;2
7;adiop@kaylene-group.com;$2a$10$dDa4teh8UCLxOOg8mMTtDOiUvR3g6YgXZQOUxU7XZ0qW/uGR5mRRq;Abou;Diop;adiop@kaylene-group.com;781898772;Front end developer;true;false;false;;true;en;admin;admin;2018-01-14T00:08:06;2
8;mndiaye@example.com;$2a$10$dDa4teh8UCLxOOg8mMTtDOiUvR3g6YgXZQOUxU7XZ0qW/uGR5mRRq;Momar;Ndiaye;mndiaye@example.com;771234510;Poste;true;false;false;;true;en;admin;admin;2018-01-14T00:08:06;1
9;pdiaw@kaylene-group.com;$2a$10$dDa4teh8UCLxOOg8mMTtDOiUvR3g6YgXZQOUxU7XZ0qW/uGR5mRRq;Papa Alassane;Diaw;pdiaw@kaylene-group.com;784378584;Superviseur;true;false;false;;true;en;admin;admin;2018-01-14T00:08:06;2
10;sdiop@kaylene-group.com;$2a$10$dDa4teh8UCLxOOg8mMTtDOiUvR3g6YgXZQOUxU7XZ0qW/uGR5mRRq;Cheikh Oumar;Diop;sdiop@kaylene-group.com;773287253;Responsable Administratif et Comptable;true;false;false;;true;en;admin;admin;2018-01-14T00:08:06;2