{
    "fluentMethods": true,
    "relationships": [
        {
            "relationshipName": "demand",
            "otherEntityName": "demand",
            "relationshipType": "many-to-one",
            "otherEntityField": "id"
        }
    ],
    "fields": [
        {
            "fieldName": "zabbixId",
            "fieldType": "String"
        },
        {
            "fieldName": "label",
            "fieldType": "String"
        },
        {
            "fieldName": "ipAddress",
            "fieldType": "String"
        },
        {
            "fieldName": "siteId",
            "fieldType": "String"
        },
        {
            "fieldName": "type",
            "fieldType": "HostType",
            "fieldValues": "ROUTER,SWITCH,FIREWALL,SERVER,WEBSERVER"
        },
        {
            "fieldName": "codeSnmp",
            "fieldType": "String"
        },
        {
            "fieldName": "dateIntegration",
            "fieldType": "Instant"
        }
    ],
    "changelogDate": "20171114002235",
    "entityTableName": "host_demand",
    "dto": "mapstruct",
    "pagination": "pagination",
    "service": "serviceClass",
    "jpaMetamodelFiltering": false
}